*** Darwin 10x10 ***
Turn = 0.
  0123456789
0 rrrrr....r
1 ...t......
2 ....t.....
3 ....h.....
4 ..........
5 ........r.
6 ttrrr.rrrr
7 ..........
8 ....t.....
9 ...t......

Turn = 1.
  0123456789
0 r..rr.....
1 .rtt.....r
2 ....t.....
3 ...h......
4 ..........
5 ....r.r..r
6 trrr..r..r
7 ........r.
8 ....t.....
9 ...t......

Turn = 2.
  0123456789
0 ..r.r.....
1 r.tt......
2 .r..t....r
3 ..h.......
4 ....r.r...
5 .........r
6 trr..r....
7 ...r.....r
8 ....t...r.
9 ...t......

Turn = 3.
  0123456789
0 .r...r....
1 ..tt......
2 r...t.....
3 .rh.r.r..r
4 .........r
5 .rr.......
6 t...r.....
7 ..........
8 ...rt....r
9 ...t....r.

Turn = 4.
  0123456789
0 r.....r...
1 ..tt......
2 ....t.r...
3 rh..t....r
4 .rr......r
5 .r........
6 t..r......
7 ..........
8 ...rt.....
9 ...r....rr

Turn = 5.
  0123456789
0 r......r..
1 ..tt..r...
2 ....t.....
3 h.r.t...r.
4 rr......r.
5 ..r.......
6 t.r.......
7 ..........
8 ...rt.....
9 ...r...r.r

Turn = 6.
  0123456789
0 r.....r.r.
1 ..tt......
2 ..r.t.....
3 h...t..r..
4 ..r....r..
5 t..r......
6 tr........
7 ..........
8 ...rr.....
9 ...r..r..r

Turn = 7.
  0123456789
0 r.....r..r
1 ..rt......
2 ..r.t.....
3 h...t.r...
4 ...r..r...
5 t...r.....
6 rr........
7 ....r.....
8 ...r......
9 ...r.r...r

*** Darwin 9x9 ***
Turn = 0.
  012345678
0 .rtrth...
1 hhhhrr...
2 rrrhhhhhr
3 .........
4 ..r..t.tr
5 rrr..r...
6 r........
7 ..r....r.
8 ....h...r

Turn = 1.
  012345678
0 .rrtth...
1 rhrrrrh..
2 rrr.h.h.r
3 ...h.t...
4 rr.r.r.tr
5 ...r.r...
6 .r.......
7 .........
8 ..r.h..rr

Turn = 2.
  012345678
0 .rrtthh..
1 rrrrr....
2 r.r.rrh..
3 rr.h.t..t
4 .r..rr.tt
5 ....rr...
6 ..r......
7 .........
8 ..r.h..rr

Turn = 3.
  012345678
0 .rrtthh..
1 rrrrt....
2 rr.rtrh..
3 .r...r..t
4 r..hrr.tt
5 ....rr...
6 ...r.....
7 ........r
8 ...rh..r.

Turn = 4.
  012345678
0 rrttthh..
1 r.rrt....
2 r.rrrrh..
3 ..r.rr..t
4 r...r..tt
5 ...hr....
6 ...rr...r
7 .......r.
8 ...rr....

Turn = 5.
  012345678
0 rrtttth..
1 r.rrr....
2 r.rrrrr..
3 r..rrr..t
4 ...r...tt
5 ...rr...r
6 .......r.
7 ...rr....
8 ...rr....

Turn = 6.
  012345678
0 rrrtrth..
1 r.rrr.r..
2 r..rrr...
3 r.rrr...t
4 ..r.r..tr
5 ...r...rr
6 ...r.....
7 ...rr....
8 ...rr....

Turn = 7.
  012345678
0 rrrtrtr..
1 r.rrrrr..
2 r.rrr....
3 .rrr....t
4 .r.....rr
5 ..r.r..rr
6 ...r.....
7 ..rr.....
8 ..r..r...

Turn = 8.
  012345678
0 rrrrrrr..
1 r.rrrrr..
2 rr.rr....
3 .rrr...rt
4 r......rr
5 .r......r
6 ...rr....
7 .rr......
8 .r....r..

Turn = 9.
  012345678
0 rrrrrrr..
1 r.rrrrr..
2 rr.rr..r.
3 .r.....rt
4 r.rr....t
5 r.......t
6 .........
7 rr.rr....
8 r......r.

Turn = 10.
  012345678
0 r.rrrrr..
1 rrrrrrrr.
2 rr.r...r.
3 ..r.r...t
4 r.......t
5 r.rr....t
6 .........
7 rr.......
8 r..rr...r

*** Darwin 7x7 ***
Turn = 0.
  0123456
0 .......
1 .......
2 .hftfhr
3 .fhrtfh
4 .trfthf
5 .rthftf
6 .tfrhtf

Turn = 1.
  0123456
0 .......
1 .......
2 .httfhr
3 .trrtfr
4 .trrrrr
5 .rttttf
6 .rfthtf

Turn = 2.
  0123456
0 .......
1 .......
2 .httfhr
3 .ttrttr
4 .ttrrrr
5 .rttttr
6 r.ftttf

Turn = 3.
  0123456
0 .......
1 .......
2 .tttfrr
3 .ttrrtr
4 .ttrrtr
5 r.tttrr
6 r.ftttf

Turn = 4.
  0123456
0 .......
1 .......
2 .tttrrr
3 .tttrrr
4 .tttrtt
5 r.ttttt
6 r.ftttt

Turn = 5.
  0123456
0 .......
1 ......r
2 .ttrrr.
3 .ttrrrt
4 .ttrrtt
5 r.ttttt
6 r.ttttt

Turn = 6.
  0123456
0 ......r
1 .......
2 .ttttr.
3 .ttrrrt
4 .ttrttt
5 r.trttt
6 r.trttt

Turn = 7.
  0123456
0 ......r
1 .......
2 .ttrt.r
3 .ttrtrt
4 rttrttt
5 ..ttttt
6 .tttttt

Turn = 8.
  0123456
0 .....r.
1 ...r...
2 .tt.t.t
3 rtttttt
4 .ttrrtt
5 ..ttttt
6 .tttttt

Turn = 9.
  0123456
0 ...rr..
1 .......
2 rtt.t.t
3 .tttttt
4 .tttttt
5 ..ttttt
6 .tttttt

Turn = 10.
  0123456
0 ...rr..
1 r......
2 .tt.t.t
3 .tttttt
4 .tttttt
5 ..ttttt
6 .tttttt

*** Darwin 7x7 ***
Turn = 0.
  0123456
0 .......
1 .......
2 .hftfhr
3 .fhrtfh
4 .trfthf
5 .rthftf
6 .tfrhtf

Turn = 1.
  0123456
0 .......
1 .......
2 .httfhr
3 .trrtfr
4 .trrrrr
5 .rttttf
6 .rfthtf

Turn = 2.
  0123456
0 .......
1 .......
2 .httfhr
3 .ttrttr
4 .ttrrrr
5 .rttttr
6 r.ftttf

Turn = 3.
  0123456
0 .......
1 .......
2 .tttfrr
3 .ttrrtr
4 .ttrrtr
5 r.tttrr
6 r.ftttf

Turn = 4.
  0123456
0 .......
1 .......
2 .tttrrr
3 .tttrrr
4 .tttrtt
5 r.ttttt
6 r.ftttt

Turn = 5.
  0123456
0 .......
1 ......r
2 .ttrrr.
3 .ttrrrt
4 .ttrrtt
5 r.ttttt
6 r.ttttt

Turn = 6.
  0123456
0 ......r
1 .......
2 .ttttr.
3 .ttrrrt
4 .ttrttt
5 r.trttt
6 r.trttt

Turn = 7.
  0123456
0 ......r
1 .......
2 .ttrt.r
3 .ttrtrt
4 rttrttt
5 ..ttttt
6 .tttttt

Turn = 8.
  0123456
0 .....r.
1 ...r...
2 .tt.t.t
3 rtttttt
4 .ttrrtt
5 ..ttttt
6 .tttttt

Turn = 9.
  0123456
0 ...rr..
1 .......
2 rtt.t.t
3 .tttttt
4 .tttttt
5 ..ttttt
6 .tttttt

Turn = 10.
  0123456
0 ...rr..
1 r......
2 .tt.t.t
3 .tttttt
4 .tttttt
5 ..ttttt
6 .tttttt

*** Darwin 7x7 ***
Turn = 0.
  0123456
0 .......
1 .......
2 .hftfhr
3 .fhrtfh
4 .trfthf
5 .rthftf
6 .tfrhtf

Turn = 1.
  0123456
0 .......
1 .......
2 h.ftfhr
3 .fhtttt
4 .ttftht
5 .tthttf
6 .tfrhtf

Turn = 2.
  0123456
0 .......
1 .......
2 h.ftfhr
3 .fhtttt
4 .tttttt
5 .tthttf
6 .ttthtt

Turn = 3.
  0123456
0 .......
1 .......
2 h.ftttt
3 .fttttt
4 .tttttt
5 .tttttt
6 .ttthtt

Turn = 4.
  0123456
0 .......
1 .......
2 h.ttttt
3 .tttttt
4 .tttttt
5 .tttttt
6 .tttttt

Turn = 5.
  0123456
0 .......
1 .......
2 h.ttttt
3 .tttttt
4 .tttttt
5 .tttttt
6 .tttttt

Turn = 6.
  0123456
0 .......
1 .......
2 h.ttttt
3 .tttttt
4 .tttttt
5 .tttttt
6 .tttttt

Turn = 7.
  0123456
0 .......
1 .......
2 h.ttttt
3 .tttttt
4 .tttttt
5 .tttttt
6 .tttttt

Turn = 8.
  0123456
0 .......
1 .......
2 h.ttttt
3 .tttttt
4 .tttttt
5 .tttttt
6 .tttttt

Turn = 9.
  0123456
0 .......
1 .......
2 h.ttttt
3 .tttttt
4 .tttttt
5 .tttttt
6 .tttttt

Turn = 10.
  0123456
0 .......
1 .......
2 h.ttttt
3 .tttttt
4 .tttttt
5 .tttttt
6 .tttttt

*** Darwin 7x7 ***
Turn = 0.
  0123456
0 .......
1 .......
2 .hftfhr
3 .fhrtfh
4 .trfthf
5 .rthftf
6 .tfrhtf

Turn = 1.
  0123456
0 .......
1 .h...hr
2 ..frt.h
3 .trrtf.
4 .rtfttf
5 .ttrftf
6 .tfrhtf

Turn = 2.
  0123456
0 .h...hr
1 ......h
2 ..rrt..
3 .rtrtt.
4 .ttrttf
5 .ttrftf
6 .tfrttf

Turn = 3.
  0123456
0 .h...hr
1 ......h
2 ..rrt..
3 .rtttt.
4 .ttrttf
5 .ttrttf
6 .trrttf

Turn = 4.
  0123456
0 .h...hr
1 ...r..h
2 ..r.t..
3 .rrttt.
4 .trrttf
5 .ttrttf
6 .tttttf

Turn = 5.
  0123456
0 .h.r.hr
1 ......h
2 ..r.t..
3 .rtttt.
4 .rrrrtf
5 .rtrrtt
6 .tttttt

Turn = 6.
  0123456
0 .h.r.rr
1 ......h
2 .r..t..
3 .trttt.
4 .rrtrtf
5 r.ttrtt
6 .tttttt

Turn = 7.
  0123456
0 .hr..rr
1 ......h
2 r...t..
3 .trttt.
4 r.rtrtf
5 r.ttttt
6 .tttttt

Turn = 8.
  0123456
0 .rr..rr
1 ......r
2 r...t..
3 .ttttt.
4 r.ttttf
5 ..ttttt
6 rtttttt

Turn = 9.
  0123456
0 .rr..rr
1 r.....r
2 ....t..
3 rttttt.
4 ..ttttt
5 ..ttttt
6 rtttttt

Turn = 10.
  0123456
0 rr..r.r
1 ..r....
2 r...t.r
3 .ttttt.
4 ..ttttt
5 ..ttttt
6 rtttttt

*** Darwin 10x1 ***
Turn = 0.
  0
0 h
1 r
2 f
3 t
4 f
5 h
6 t
7 f
8 t
9 f

Turn = 1.
  0
0 h
1 r
2 f
3 t
4 f
5 h
6 t
7 f
8 t
9 f

Turn = 2.
  0
0 r
1 r
2 f
3 t
4 t
5 t
6 t
7 t
8 t
9 t

Turn = 3.
  0
0 r
1 r
2 f
3 t
4 t
5 t
6 t
7 t
8 t
9 t

Turn = 4.
  0
0 r
1 r
2 f
3 t
4 t
5 t
6 t
7 t
8 t
9 t

Turn = 5.
  0
0 r
1 r
2 t
3 t
4 t
5 t
6 t
7 t
8 t
9 t

Turn = 6.
  0
0 r
1 r
2 r
3 r
4 t
5 t
6 t
7 t
8 t
9 t

Turn = 7.
  0
0 r
1 r
2 r
3 r
4 t
5 t
6 t
7 t
8 t
9 t

Turn = 8.
  0
0 r
1 r
2 r
3 r
4 t
5 t
6 t
7 t
8 t
9 t

Turn = 9.
  0
0 r
1 r
2 r
3 t
4 t
5 t
6 t
7 t
8 t
9 t

Turn = 10.
  0
0 r
1 r
2 t
3 t
4 t
5 t
6 t
7 t
8 t
9 t

*** Darwin 10x1 ***
Turn = 0.
  0
0 h
1 r
2 f
3 t
4 f
5 h
6 t
7 f
8 t
9 f

Turn = 1.
  0
0 h
1 r
2 r
3 r
4 r
5 r
6 r
7 r
8 r
9 f

Turn = 2.
  0
0 h
1 r
2 r
3 r
4 r
5 r
6 r
7 r
8 r
9 f

Turn = 3.
  0
0 h
1 r
2 r
3 r
4 r
5 r
6 r
7 r
8 r
9 r

Turn = 4.
  0
0 h
1 r
2 r
3 r
4 r
5 r
6 r
7 r
8 r
9 r

Turn = 5.
  0
0 h
1 r
2 r
3 r
4 r
5 r
6 r
7 r
8 r
9 r

Turn = 6.
  0
0 r
1 r
2 r
3 r
4 r
5 r
6 r
7 r
8 r
9 r

Turn = 7.
  0
0 r
1 r
2 r
3 r
4 r
5 r
6 r
7 r
8 r
9 r

Turn = 8.
  0
0 r
1 r
2 r
3 r
4 r
5 r
6 r
7 r
8 r
9 r

Turn = 9.
  0
0 r
1 r
2 r
3 r
4 r
5 r
6 r
7 r
8 r
9 r

Turn = 10.
  0
0 r
1 r
2 r
3 r
4 r
5 r
6 r
7 r
8 r
9 r

*** Darwin 10x1 ***
Turn = 0.
  0
0 h
1 r
2 f
3 t
4 f
5 h
6 t
7 f
8 t
9 f

Turn = 1.
  0
0 r
1 r
2 t
3 t
4 f
5 t
6 t
7 t
8 t
9 f

Turn = 2.
  0
0 r
1 r
2 t
3 t
4 t
5 t
6 t
7 t
8 t
9 f

Turn = 3.
  0
0 r
1 r
2 t
3 t
4 t
5 t
6 t
7 t
8 t
9 f

Turn = 4.
  0
0 r
1 r
2 t
3 t
4 t
5 t
6 t
7 t
8 t
9 t

Turn = 5.
  0
0 r
1 t
2 t
3 t
4 t
5 t
6 t
7 t
8 t
9 t

Turn = 6.
  0
0 r
1 t
2 t
3 t
4 t
5 t
6 t
7 t
8 t
9 t

Turn = 7.
  0
0 r
1 t
2 t
3 t
4 t
5 t
6 t
7 t
8 t
9 t

Turn = 8.
  0
0 r
1 r
2 r
3 t
4 t
5 t
6 t
7 t
8 t
9 t

Turn = 9.
  0
0 r
1 r
2 r
3 t
4 t
5 t
6 t
7 t
8 t
9 t

Turn = 10.
  0
0 r
1 r
2 t
3 t
4 t
5 t
6 t
7 t
8 t
9 t

*** Darwin 10x1 ***
Turn = 0.
  0
0 h
1 r
2 f
3 t
4 f
5 h
6 t
7 f
8 t
9 f

Turn = 1.
  0
0 h
1 r
2 f
3 t
4 f
5 h
6 t
7 f
8 t
9 f

Turn = 2.
  0
0 h
1 r
2 t
3 t
4 f
5 t
6 t
7 t
8 t
9 f

Turn = 3.
  0
0 h
1 r
2 t
3 t
4 f
5 t
6 t
7 t
8 t
9 f

Turn = 4.
  0
0 h
1 r
2 t
3 t
4 t
5 t
6 t
7 t
8 t
9 f

Turn = 5.
  0
0 h
1 r
2 t
3 t
4 t
5 t
6 t
7 t
8 t
9 t

Turn = 6.
  0
0 h
1 r
2 r
3 t
4 t
5 t
6 t
7 t
8 t
9 t

Turn = 7.
  0
0 h
1 r
2 r
3 t
4 t
5 t
6 t
7 t
8 t
9 t

Turn = 8.
  0
0 h
1 r
2 r
3 t
4 t
5 t
6 t
7 t
8 t
9 t

Turn = 9.
  0
0 h
1 r
2 r
3 t
4 t
5 t
6 t
7 t
8 t
9 t

Turn = 10.
  0
0 h
1 r
2 r
3 r
4 r
5 t
6 t
7 t
8 t
9 t

*** Darwin 8x8 ***
Turn = 0.
  01234567
0 f.......
1 ........
2 ........
3 ...hh...
4 ...hh...
5 ........
6 ........
7 .......f

Turn = 1.
  01234567
0 f.......
1 ........
2 ...h....
3 .....h..
4 ..h.....
5 ....h...
6 ........
7 .......f

Turn = 2.
  01234567
0 f.......
1 ...h....
2 ........
3 ......h.
4 .h......
5 ........
6 ....h...
7 .......f

Turn = 3.
  01234567
0 f..h....
1 ........
2 ........
3 .......h
4 h.......
5 ........
6 ........
7 ....h..f

Turn = 4.
  01234567
0 f..h....
1 ........
2 ........
3 .......h
4 h.......
5 ........
6 ........
7 ....h..f

Turn = 5.
  01234567
0 f..h....
1 ........
2 ........
3 .......h
4 h.......
5 ........
6 ........
7 ....h..f

*** Darwin 7x9 ***
Turn = 0.
  012345678
0 t........
1 .........
2 .........
3 ..h......
4 .........
5 ....r....
6 ........t

Turn = 1.
  012345678
0 t........
1 .........
2 .........
3 ...h.....
4 ....r....
5 .........
6 ........t

Turn = 2.
  012345678
0 t........
1 .........
2 .........
3 ....r....
4 ....r....
5 .........
6 ........t

Turn = 3.
  012345678
0 t........
1 .........
2 .........
3 ....rr...
4 .........
5 .........
6 ........t

Turn = 4.
  012345678
0 t........
1 .........
2 ....r....
3 ......r..
4 .........
5 .........
6 ........t

Turn = 5.
  012345678
0 t........
1 ....r....
2 .........
3 .......r.
4 .........
5 .........
6 ........t

*** Darwin 8x8 ***
Turn = 0.
  01234567
0 f.......
1 ........
2 ........
3 ...ff...
4 ...ff...
5 ........
6 ........
7 .......f

Turn = 1.
  01234567
0 f.......
1 ........
2 ........
3 ...ff...
4 ...ff...
5 ........
6 ........
7 .......f

Turn = 2.
  01234567
0 f.......
1 ........
2 ........
3 ...ff...
4 ...ff...
5 ........
6 ........
7 .......f

Turn = 3.
  01234567
0 f.......
1 ........
2 ........
3 ...ff...
4 ...ff...
5 ........
6 ........
7 .......f

Turn = 4.
  01234567
0 f.......
1 ........
2 ........
3 ...ff...
4 ...ff...
5 ........
6 ........
7 .......f

Turn = 5.
  01234567
0 f.......
1 ........
2 ........
3 ...ff...
4 ...ff...
5 ........
6 ........
7 .......f

*** Darwin 7x9 ***
Turn = 0.
  012345678
0 h........
1 .........
2 .........
3 ..r......
4 .........
5 ....r....
6 ........r

Turn = 1.
  012345678
0 .........
1 h........
2 .........
3 ...r.....
4 ....r....
5 .........
6 .......r.

Turn = 2.
  012345678
0 .........
1 .........
2 h........
3 ....r....
4 ....r....
5 .........
6 ......r..

Turn = 3.
  012345678
0 .........
1 .........
2 .........
3 h....r...
4 .....r...
5 .........
6 .....r...

Turn = 4.
  012345678
0 .........
1 .........
2 .........
3 ......r..
4 h.....r..
5 .........
6 ....r....

Turn = 5.
  012345678
0 .........
1 .........
2 .........
3 .......r.
4 .......r.
5 h........
6 ...r.....

*** Darwin 8x8 ***
Turn = 0.
  01234567
0 f.......
1 ........
2 ........
3 ...fh...
4 ...hr...
5 ........
6 ........
7 .......r

Turn = 1.
  01234567
0 f.......
1 ........
2 ....h...
3 ...f....
4 ...h....
5 ....r...
6 .......r
7 ........

Turn = 2.
  01234567
0 f.......
1 ....h...
2 ........
3 ...f....
4 ...h....
5 .......r
6 ....r...
7 ........

Turn = 3.
  01234567
0 f...h...
1 ........
2 ........
3 ...f....
4 ...h...r
5 ........
6 ........
7 ....r...

Turn = 4.
  01234567
0 f...h...
1 ........
2 ........
3 ...f...r
4 ...h....
5 ........
6 ........
7 ....r...

Turn = 5.
  01234567
0 f...h...
1 ........
2 .......r
3 ...f....
4 ...h....
5 ........
6 ........
7 ...r....

*** Darwin 7x9 ***
Turn = 0.
  012345678
0 h........
1 .........
2 .........
3 ..h......
4 .........
5 ....h....
6 ........h

Turn = 1.
  012345678
0 .........
1 h........
2 .........
3 .........
4 ..h......
5 .........
6 ....h...h

Turn = 2.
  012345678
0 .........
1 .........
2 h........
3 .........
4 .........
5 ..h......
6 ....h...h

Turn = 3.
  012345678
0 .........
1 .........
2 .........
3 h........
4 .........
5 .........
6 ..h.h...h

Turn = 4.
  012345678
0 .........
1 .........
2 .........
3 .........
4 h........
5 .........
6 ..h.h...h

Turn = 5.
  012345678
0 .........
1 .........
2 .........
3 .........
4 .........
5 h........
6 ..h.h...h

*** Darwin 10x10 ***
Turn = 0.
  0123456789
0 rrrrr....r
1 ...t......
2 ....t.....
3 ....h.....
4 ..........
5 ........r.
6 ttrrr.rrrr
7 ..........
8 ....t.....
9 ...t......

Turn = 1.
  0123456789
0 ...r......
1 rrr.r....r
2 ...rt.....
3 ....t.....
4 ..........
5 ........r.
6 ttttt.rrrr
7 ..........
8 ....t.....
9 ...t......

Turn = 2.
  0123456789
0 ..........
1 ...rr.....
2 rrr.r....r
3 ...r.r....
4 ..........
5 ......rr..
6 ttttt.....
7 .......rrr
8 ....t.....
9 ...t......

Turn = 3.
  0123456789
0 ..........
1 ....r.....
2 ...r......
3 rrr.r.r..r
4 ...r..r...
5 ......r...
6 ttttt.....
7 ..........
8 ....t..rrr
9 ...t......

Turn = 4.
  0123456789
0 ..........
1 ...r......
2 ..........
3 ...r..rr..
4 rrr.r....r
5 ...r.r....
6 ttttt.....
7 ..........
8 ....t.....
9 ...t...rrr

Turn = 5.
  0123456789
0 ..........
1 ..r.......
2 ......r...
3 ........r.
4 ...r......
5 rrrrrr...r
6 ttt.t.....
7 ...r......
8 ....t.....
9 ...t...rrr

Turn = 6.
  0123456789
0 ..........
1 .r....r...
2 ..........
3 .........r
4 ...r......
5 rrr.r.....
6 rrrrrr...r
7 ..........
8 ...rt.....
9 ...t...rrr

Turn = 7.
  0123456789
0 ......r...
1 r.........
2 ..........
3 .........r
4 ....r.....
5 rrr.r.....
6 rr..r.....
7 ..rr.r...r
8 ...rt..r..
9 ...r....rr

*** Darwin 10x10 ***
Turn = 0.
  0123456789
0 rrrrr....r
1 ...t......
2 ....t.....
3 ....h.....
4 ..........
5 ........r.
6 ttrrr.rrrr
7 ..........
8 ....t.....
9 ...t......

Turn = 1.
  0123456789
0 rrrr.r..r.
1 ...t......
2 ....t.....
3 .....h....
4 ..........
5 .........r
6 tttrrr.rrr
7 ..........
8 ....t.....
9 ...t......

Turn = 2.
  0123456789
0 rrrt..rr..
1 ...t......
2 ....t.....
3 ......h...
4 ..........
5 ....r..rrr
6 ttt.r....r
7 ...r......
8 ....t.....
9 ...t......

Turn = 3.
  0123456789
0 rrrt..rr..
1 ...t......
2 ....t.....
3 .......h..
4 ....r..rr.
5 .........r
6 tttr.....r
7 ..........
8 ...rt.....
9 ...t......

Turn = 4.
  0123456789
0 r.rr..r...
1 .r.r...r..
2 ....t.....
3 ....r..rr.
4 ........r.
5 ........rr
6 ttrr......
7 ..........
8 ...rt.....
9 ...r......

Turn = 5.
  0123456789
0 .rrr...r..
1 ..r.......
2 .r..r..r..
3 ....r..rrr
4 .........r
5 .......r..
6 trrr......
7 ..........
8 ...tt.....
9 ....r.....

Turn = 6.
  0123456789
0 .rrr....r.
1 .r........
2 ....r..rr.
3 .r..r..r.r
4 .........r
5 ...r..r...
6 trr.......
7 ..........
8 ...tt.....
9 .....r....

Turn = 7.
  0123456789
0 .rr......r
1 r..r....r.
2 ...r..rr..
3 .....r...r
4 .r.r....r.
5 ..r..r....
6 tt........
7 ..........
8 ...tt.....
9 ......r...

*** Darwin 9x9 ***
Turn = 0.
  012345678
0 .rtrth...
1 hhhhrr...
2 rrrhhhhhr
3 .........
4 ..r..t.tr
5 rrr..r...
6 r........
7 ..r....r.
8 ....h...r

Turn = 1.
  012345678
0 .rrtth...
1 hrrrrr...
2 ..rhhhhrr
3 rr.......
4 .r...t.rr
5 rrr.r....
6 r........
7 .r.......
8 ....h..rr

Turn = 2.
  012345678
0 .rtrth...
1 hrrrrr...
2 ..rrrrrrr
3 .r.......
4 rrr..t.r.
5 rr.r...r.
6 .........
7 rr.......
8 ....h..rr

Turn = 3.
  012345678
0 rrrrth...
1 h.rrtr..r
2 ..rrrrrr.
3 ..r......
4 rrr..tr..
5 rrr......
6 .......r.
7 ........r
8 rr..h.r..

Turn = 4.
  012345678
0 rrrrth..r
1 .rrrrrrr.
2 ..rr..r..
3 ...rr....
4 rrr..rr..
5 .rr......
6 r.......r
7 .......r.
8 rr..hr...

Turn = 5.
  012345678
0 rrrrtr.rr
1 .rrrrrr..
2 ..rr...r.
3 rrrr.....
4 ....rrr..
5 r.......r
6 ..r......
7 r........
8 r.r.rr.r.

Turn = 6.
  012345678
0 rrrrrr.rr
1 ..rrrr...
2 rrrr..r.r
3 .rrr.r...
4 ........r
5 r...r.r..
6 .........
7 r.r......
8 r..rrr.r.

Turn = 7.
  012345678
0 rrrrrrr.r
1 r.rrrr...
2 .rrr.r..r
3 rr..r.r.r
4 .........
5 .........
6 r...r.r..
7 r........
8 r.rrrr..r

Turn = 8.
  012345678
0 r.rrrrrr.
1 rrrrrr...
2 .rrr.r..r
3 rr...r..r
4 ......r..
5 .........
6 r........
7 r..rr.r..
8 r.r.rr..r

Turn = 9.
  012345678
0 r.rrrrr..
1 rrrrrrr..
2 rrr...r.r
3 .r.r..r.r
4 .........
5 ......r..
6 r..r.....
7 .r..rr...
8 rr..r.r.r

Turn = 10.
  012345678
0 r.rrrrr..
1 rrrr.rr..
2 rr.r...rr
3 .rr....rr
4 ...r.....
5 ...r.....
6 .....rr..
7 r.r.r....
8 rr..r.rr.

*** Darwin 9x9 ***
Turn = 0.
  012345678
0 .rtrtr...
1 rrrrrr...
2 rrrhfffff
3 .........
4 ..f..f.ff
5 fff..f...
6 f........
7 ..f....f.
8 ....f...f

Turn = 1.
  012345678
0 .rrrtr...
1 rrrrrr...
2 ..rhfffff
3 rr.......
4 ..f..f.ff
5 fff..f...
6 f........
7 ..f....f.
8 ....f...f

Turn = 2.
  012345678
0 r.rrrr...
1 .rrrrr...
2 rr.hfffff
3 .........
4 rrf..f.ff
5 fff..f...
6 f........
7 ..f....f.
8 ....f...f

Turn = 3.
  012345678
0 r.rrrr...
1 .rrrrr...
2 r..hfffff
3 r........
4 rrf..f.ff
5 rr.r.f...
6 f........
7 ..f....f.
8 ....f...f

Turn = 4.
  012345678
0 r.rrrr...
1 .rrrrr...
2 r..hfffff
3 r........
4 rrf..f.ff
5 r.r.rf...
6 r........
7 ..f....f.
8 ....f...f

Turn = 5.
  012345678
0 r.rrrr...
1 r.rrrr...
2 .r.hfffff
3 r........
4 rrr..f.ff
5 r..rrr...
6 .r.......
7 ..f....f.
8 ....f...f

Turn = 6.
  012345678
0 r.rrrr...
1 rr.rrr...
2 r..h..fff
3 .rr.rr...
4 rr...r.ff
5 .r.rrr...
6 ..r......
7 ..f....f.
8 ....f...f

Turn = 7.
  012345678
0 .rrrrr...
1 rr.r.....
2 r.rrrrfff
3 .r...r...
4 rr.rrrrff
5 ..r......
6 ...rr....
7 ..f....f.
8 ....f...f

Turn = 8.
  012345678
0 rrrr.r...
1 .rrrr....
2 r..r.rfff
3 ..rrrr.r.
4 r....rr.f
5 r..rr....
6 ...r.....
7 ..f.r..f.
8 ....f...f

Turn = 9.
  012345678
0 rrrrr....
1 .rrr.....
2 ...rrrrrf
3 r.rr.r.r.
4 r...rr.rf
5 ...r.....
6 r...r....
7 ..frr..f.
8 ....r...f

Turn = 10.
  012345678
0 rrrrr....
1 .rrr.....
2 ..r..r.rf
3 r.rrrrrr.
4 r..r.r.r.
5 ....r...r
6 ....r....
7 r.f.r..f.
8 ...r.r..f

*** Darwin 9x9 ***
Turn = 0.
  012345678
0 .rffff...
1 ffffff...
2 fffffffff
3 .........
4 ..f..f.ff
5 fff..f...
6 f........
7 ..f....f.
8 ....f...f

Turn = 1.
  012345678
0 .rrfff...
1 frrfff...
2 fffffffff
3 .........
4 ..f..f.ff
5 fff..f...
6 f........
7 ..f....f.
8 ....f...f

Turn = 2.
  012345678
0 .rrrff...
1 frrrff...
2 fffffffff
3 .........
4 ..f..f.ff
5 fff..f...
6 f........
7 ..f....f.
8 ....f...f

Turn = 3.
  012345678
0 rrrrff...
1 f.rrff...
2 fffffffff
3 .........
4 ..f..f.ff
5 fff..f...
6 f........
7 ..f....f.
8 ....f...f

Turn = 4.
  012345678
0 rrrrff...
1 f.rrff...
2 fffffffff
3 .........
4 ..f..f.ff
5 fff..f...
6 f........
7 ..f....f.
8 ....f...f

Turn = 5.
  012345678
0 rrrrff...
1 fr.rff...
2 fffffffff
3 .........
4 ..f..f.ff
5 fff..f...
6 f........
7 ..f....f.
8 ....f...f

Turn = 6.
  012345678
0 rrrrff...
1 rrr.ff...
2 fffffffff
3 .........
4 ..f..f.ff
5 fff..f...
6 f........
7 ..f....f.
8 ....f...f

Turn = 7.
  012345678
0 rrrrff...
1 rrr.ff...
2 fffffffff
3 .........
4 ..f..f.ff
5 fff..f...
6 f........
7 ..f....f.
8 ....f...f

Turn = 8.
  012345678
0 rrrrff...
1 rrr.ff...
2 fffffffff
3 .........
4 ..f..f.ff
5 fff..f...
6 f........
7 ..f....f.
8 ....f...f

Turn = 9.
  012345678
0 rrr.ff...
1 rrrrff...
2 fffffffff
3 .........
4 ..f..f.ff
5 fff..f...
6 f........
7 ..f....f.
8 ....f...f

Turn = 10.
  012345678
0 rrr.ff...
1 rrrrff...
2 rrrrfffff
3 .........
4 ..f..f.ff
5 fff..f...
6 f........
7 ..f....f.
8 ....f...f

